10002:
4.2
4
10005:
3.5
4.1
3.2
3.3
10007:
3.1
2.8
3
3.2
3
3.2
2.9
3
2.9
10008:
4.5
3.4
4.1
3.9
3.9
10011:
10012:
3.3
4.2
3
3.4
3.2
4
1002:
3.1
3.5
3.4
3.6
3.5
4
3.5
10021:
2.8
3.7
10022:
2.9
3.3
3.4
3.4
10023:
3.6
4.5
3.6
3.5
3.8
4.2
10024:
3.5
4
3.4
3.9
3.5
3.3
3.3
3.6
10034:
2.9
10042:
4.2
4.3
4.3
4.2
4.3
4.3
4.3
4.2
4.3
4.3
4.3
4.3
4.3
4.3
4.3
4.3
4.3
4.3
4.2
4.2
4.3
4.2
4.3
4.2
4.3
4.2
4.3
4.3
4.2
4.3
4.3
4.3
4.3
4.2
4.3
4.2
4.3
4.7
4.3
4.1
4.3
4.3
4.1
4.3
4.5
4.3
4.4
4.2
4.1
4.2
4.3
4.3
4.3
4.4
4.2
4.3
4.5
4.2
4.2
4.3
4.3
4.4
4.6
4.2
4.3
4.3
4.3
4.2
4.1
4.3
4.2
4.4
4.3
4.3
4.3
4.3
4.3
4.2
4.2
4.2
4.3
4.3
4.4
4.2
4.3
4.3
4.3
4.4
4.2
4.2
4.3
4.2
4.2
4.3
4.3
4.3
4.3
4.3
4.3
4.3
4.4
4.2
4.1
4.4
4.1
4.3
4.1
4.3
4.3
4.2
4.3
4.3
4.2
4.3
4.3
4.2
4.2
4.1
4.1
4.3
4.3
4.3
4.1
4.2
4.3
4.2
4.3
4.3
4.3
4.2
4.2
4.3
4.3
4.3
4.2
4.3
4.3
4.3
4.2
4.2
4.3
4.2
4.1
4.3
4.3
4.3
4.3
4.2
4.3
4.3
4.3
4.3
4.2
4.2
4.2
4.2
4.2
4.3
4.2
4.3
4.3
4.2
4.2
4.1
4.3
4.5
4.3
4.3
4.2
4.2
4.2
4.1
4.4
4.3
4.3
4.1
4.3
4.2
4.3
4.3
4.3
4.3
4.2
4.5
4.5
4.3
4.3
4.3
4.5
4.3
4.3
4.3
4.3
4.2
4.5
4.3
4.3
4.3
4.4
4.3
4.1
4.2
4.3
4.3
4.2
4.4
4.6
4.3
4.3
4.4
4.3
4.3
4.3
4.2
4.2
4.2
4.2
4.3
4
4.3
4.3
4.3
4.3
4.3
4.2
4.3
4.3
RMSE: 0.82
